<svg xmlns="http://www.w3.org/2000/svg" width="31.088" height="55.628" viewBox="0 0 31.088 55.628">
  <path id="Контур_216" data-name="Контур 216" d="M1774.938,802.775l22.7,23.573-22.26,23.572" transform="translate(-1770.696 -798.533)" fill="none" stroke="#0a0f19" stroke-linecap="round" stroke-miterlimit="10" stroke-width="6"/>
</svg>
