<svg xmlns="http://www.w3.org/2000/svg" width="82.381" height="82.38" viewBox="0 0 82.381 82.38">
  <g id="Сгруппировать_461" data-name="Сгруппировать 461" transform="translate(-1099.499 -1789.354)">
    <rect id="Прямоугольник_570" data-name="Прямоугольник 570" width="13.288" height="2.657" transform="translate(1163.278 1853.13)" fill="#b6cfcf"/>
    <rect id="Прямоугольник_571" data-name="Прямоугольник 571" width="2.657" height="2.657" transform="translate(1168.592 1858.446)" fill="#b6cfcf"/>
    <rect id="Прямоугольник_572" data-name="Прямоугольник 572" width="2.657" height="2.657" transform="translate(1173.907 1858.446)" fill="#b6cfcf"/>
    <rect id="Прямоугольник_573" data-name="Прямоугольник 573" width="2.657" height="2.657" transform="translate(1163.278 1858.446)" fill="#b6cfcf"/>
    <rect id="Прямоугольник_574" data-name="Прямоугольник 574" width="13.288" height="2.657" transform="translate(1104.813 1799.981)" fill="#b6cfcf"/>
    <rect id="Прямоугольник_575" data-name="Прямоугольник 575" width="2.657" height="2.657" transform="translate(1115.442 1805.297)" fill="#b6cfcf"/>
    <rect id="Прямоугольник_576" data-name="Прямоугольник 576" width="2.657" height="2.657" transform="translate(1104.813 1805.297)" fill="#b6cfcf"/>
    <rect id="Прямоугольник_577" data-name="Прямоугольник 577" width="2.657" height="2.657" transform="translate(1110.129 1805.297)" fill="#b6cfcf"/>
    <path id="Контур_529" data-name="Контур 529" d="M1695.77,1834.562l-.194.689a17.153,17.153,0,0,1-1.53,3.714l-.35.622,1.5,2.916-4.267,4.267-2.918-1.5-.622.348a16.951,16.951,0,0,1-3.717,1.533l-.687.194-1,3.132H1680.3v-5.383a14.57,14.57,0,0,0,12.72-18.535h5.882v7Zm-18.129,33.186a1.331,1.331,0,0,1-1.327,1.33H1671a11.894,11.894,0,0,0-2.864-7.745,6.547,6.547,0,0,0,1.534-4.214v-6.643a10.629,10.629,0,1,0-21.258,0v6.643a6.543,6.543,0,0,0,1.535,4.214,11.889,11.889,0,0,0-2.865,7.745h-5.313a1.332,1.332,0,0,1-1.33-1.33v-29.231a1.332,1.332,0,0,1,1.33-1.33h34.547a1.331,1.331,0,0,1,1.327,1.33Zm-24.005-6.228,3.36,7.558h-7.257a9.291,9.291,0,0,1,3.9-7.558m13.376-4.4a3.9,3.9,0,0,1-.83,2.389,11.879,11.879,0,0,0-2.1-1.258,5.294,5.294,0,0,0,1.6-3.79v-3.672a3.966,3.966,0,0,0-2.2-3.565l-3.112-1.555v-3.047a7.979,7.979,0,0,1,6.643,7.855Zm-2.57,4.4a9.29,9.29,0,0,1,3.9,7.558h-7.256Zm-4.495,3.571-.908,2.041-.908-2.041Zm-.908-5.316a9.284,9.284,0,0,1,3.041.52l-.951,2.137h-4.178l-.95-2.137a9.267,9.267,0,0,1,3.038-.52m-1.327-2.656a2.663,2.663,0,0,1-2.659-2.659v-3.672a1.326,1.326,0,0,1,.734-1.189l3.252-1.626,3.252,1.626a1.322,1.322,0,0,1,.734,1.189v3.672a2.661,2.661,0,0,1-2.656,2.659Zm-6.645,0v-6.643a7.982,7.982,0,0,1,6.645-7.855v3.047l-3.112,1.555a3.965,3.965,0,0,0-2.2,3.565v3.672a5.291,5.291,0,0,0,1.6,3.79,11.917,11.917,0,0,0-2.1,1.258,3.9,3.9,0,0,1-.832-2.389m7.972-29.593,3.132-1,.194-.687a17.107,17.107,0,0,1,1.53-3.714l.351-.622-1.5-2.916,4.268-4.267,2.915,1.5.625-.348a17.217,17.217,0,0,1,3.716-1.533l.687-.194,1-3.129h1.689v5.382a14.577,14.577,0,0,0-12.722,18.535h-5.88Zm21.261-34.186a1.327,1.327,0,0,1,1.327-1.329h34.548a1.33,1.33,0,0,1,1.329,1.329v29.231a1.33,1.33,0,0,1-1.329,1.328h-5.394a11.972,11.972,0,0,0-6.835-9.5,5.291,5.291,0,0,0,1.6-3.79v-.926l1.408-2.11a7.451,7.451,0,0,0-6.2-11.58h-3.708a7.446,7.446,0,0,0-6.2,11.577l1.406,2.113v.926a5.3,5.3,0,0,0,1.6,3.79,11.972,11.972,0,0,0-6.835,9.5h-5.394a1.328,1.328,0,0,1-1.327-1.328Zm17.273,19.929a2.659,2.659,0,0,1-2.657-2.656v-3.674a1.319,1.319,0,0,1,.734-1.187l3.252-1.626,3.25,1.626a1.321,1.321,0,0,1,.736,1.187v3.674a2.66,2.66,0,0,1-2.659,2.656Zm7.6-8.006a3.97,3.97,0,0,0-1.834-1.889l-3.112-1.555v-3.165h.527a4.767,4.767,0,0,1,4.419,6.609m-7.6,10.77a8.452,8.452,0,0,1,2.656,0v1.223a1.328,1.328,0,1,1-2.656,0Zm-5.316-12.59a4.8,4.8,0,0,1,4.791-4.789h.525v3.165l-3.112,1.555a3.963,3.963,0,0,0-1.832,1.892,4.808,4.808,0,0,1-.372-1.823m-2.55,20.456a9.31,9.31,0,0,1,5.209-7.061v.418a3.986,3.986,0,0,0,7.972,0v-.418a9.319,9.319,0,0,1,5.209,7.061Zm1.222,6.645a11.971,11.971,0,0,1-10.629,11.879v-3.906a3.991,3.991,0,0,0-3.986-3.987H1667.7a11.931,11.931,0,0,1,9.936-15.867v3.908a3.992,3.992,0,0,0,3.986,3.987h8.609a11.933,11.933,0,0,1,.693,3.986m7.973,19.932h18.6v13.286h-18.6Zm-39.863-39.863h-18.6v-13.287h18.6Zm42.52,24.885v-8.94h14.616a3.991,3.991,0,0,0,3.986-3.987V1793.34a3.989,3.989,0,0,0-3.986-3.986h-34.548a3.99,3.99,0,0,0-3.986,3.986v9.3H1661.7v-7.973H1637.78v18.6H1661.7V1805.3h15.945v2.659h-3.625l-1.164,3.631a19.854,19.854,0,0,0-2.963,1.223l-3.386-1.745-7.007,7.009,1.743,3.387a20.05,20.05,0,0,0-1.223,2.962l-3.634,1.164v8.943h-14.615a3.989,3.989,0,0,0-3.987,3.987v29.231a3.991,3.991,0,0,0,3.987,3.986h34.547a3.992,3.992,0,0,0,3.986-3.986v-9.3h15.943v7.972h23.918v-18.6h-23.918v7.972H1680.3v-2.657h3.625l1.164-3.634a19.825,19.825,0,0,0,2.963-1.22l3.386,1.742,7.007-7.006-1.742-3.386a20.216,20.216,0,0,0,1.222-2.963Z" transform="translate(-538.281)" fill="#b6cfcf"/>
    <rect id="Прямоугольник_578" data-name="Прямоугольник 578" width="2.657" height="2.657" transform="translate(1104.813 1839.844)" fill="#b6cfcf"/>
    <rect id="Прямоугольник_579" data-name="Прямоугольник 579" width="2.657" height="2.657" transform="translate(1134.047 1839.844)" fill="#b6cfcf"/>
    <rect id="Прямоугольник_580" data-name="Прямоугольник 580" width="2.657" height="2.657" transform="translate(1144.676 1794.667)" fill="#b6cfcf"/>
    <rect id="Прямоугольник_581" data-name="Прямоугольник 581" width="2.657" height="2.657" transform="translate(1173.907 1794.667)" fill="#b6cfcf"/>
  </g>
</svg>
