<svg width="20" height="20" viewBox="0 0 20 20" fill="none" xmlns="http://www.w3.org/2000/svg">
<path d="M10 0C4.55569 0 0.127763 4.35083 0.0029625 9.76512C0.118613 5.04124 3.71063 1.24999 8.12502 1.24999C12.6123 1.24999 16.25 5.1675 16.25 9.99998C16.25 11.0355 17.0895 11.875 18.125 11.875C19.1606 11.875 20 11.0355 20 9.99998C20 4.47717 15.5228 0 10 0ZM10 20C15.4443 20 19.8722 15.6492 19.997 10.2349C19.8814 14.9588 16.2894 18.75 11.875 18.75C7.38769 18.75 3.75 14.8325 3.75 10C3.75 8.96446 2.91053 8.12502 1.875 8.12502C0.839476 8.12502 0 8.96449 0 10C0 15.5228 4.47717 20 10 20Z" fill="#FFF"/>
</svg>
