<svg xmlns="http://www.w3.org/2000/svg" width="52.865" height="52.866" viewBox="0 0 52.865 52.866">
  <g id="Сгруппировать_270" data-name="Сгруппировать 270" transform="translate(-1917.507 -2842.937)">
    <g id="Сгруппировать_269" data-name="Сгруппировать 269">
      <path id="Контур_547" data-name="Контур 547" d="M1943.94,2895.8a26.433,26.433,0,1,1,26.432-26.433A26.463,26.463,0,0,1,1943.94,2895.8Zm0-51.577a25.144,25.144,0,1,0,25.143,25.144A25.172,25.172,0,0,0,1943.94,2844.226Z" fill="#fff"/>
      <path id="Контур_548" data-name="Контур 548" d="M1955.544,2863.428a9.544,9.544,0,0,1-2.735.749,4.761,4.761,0,0,0,2.094-2.633,9.521,9.521,0,0,1-3.025,1.154,4.766,4.766,0,0,0-8.113,4.342,13.526,13.526,0,0,1-9.816-4.975,4.774,4.774,0,0,0,1.474,6.359,4.77,4.77,0,0,1-2.157-.595v.058a4.762,4.762,0,0,0,3.821,4.669,4.63,4.63,0,0,1-1.255.168,4.7,4.7,0,0,1-.9-.084,4.761,4.761,0,0,0,4.447,3.305,9.554,9.554,0,0,1-5.914,2.039,9.707,9.707,0,0,1-1.136-.066,13.542,13.542,0,0,0,20.847-11.409c0-.207,0-.413-.013-.616a9.65,9.65,0,0,0,2.376-2.465" fill="#fff"/>
    </g>
  </g>
</svg>
